<!--This work is licensed under a Creative Commons Attribution-ShareAlike 4.0 International License (CC BY-SA) with Design Exception 1.0-->
<eagle version="7.1.0">
<drawing>
<settings>
<setting alwaysvectorfont="no"/>
<setting verticaltext="up"/>
</settings>
<grid distance="0.1" unitdist="inch" unit="inch" style="lines" multiple="1" display="no" altdistance="0.01" altunitdist="inch" altunit="inch"/>
<layers>
<layer number="1" name="Top" color="4" fill="1" visible="yes" active="yes"/>
<layer number="16" name="Bottom" color="1" fill="1" visible="yes" active="yes"/>
<layer number="17" name="Pads" color="2" fill="1" visible="yes" active="yes"/>
<layer number="18" name="Vias" color="2" fill="1" visible="yes" active="yes"/>
<layer number="19" name="Unrouted" color="6" fill="1" visible="yes" active="yes"/>
<layer number="20" name="Dimension" color="15" fill="1" visible="yes" active="yes"/>
<layer number="21" name="tPlace" color="7" fill="1" visible="yes" active="yes"/>
<layer number="22" name="bPlace" color="7" fill="1" visible="yes" active="yes"/>
<layer number="23" name="tOrigins" color="15" fill="1" visible="yes" active="yes"/>
<layer number="24" name="bOrigins" color="15" fill="1" visible="yes" active="yes"/>
<layer number="25" name="tNames" color="7" fill="1" visible="yes" active="yes"/>
<layer number="26" name="bNames" color="7" fill="1" visible="yes" active="yes"/>
<layer number="27" name="tValues" color="7" fill="1" visible="yes" active="yes"/>
<layer number="28" name="bValues" color="7" fill="1" visible="yes" active="yes"/>
<layer number="29" name="tStop" color="7" fill="3" visible="yes" active="yes"/>
<layer number="30" name="bStop" color="7" fill="6" visible="no" active="yes"/>
<layer number="31" name="tCream" color="7" fill="4" visible="yes" active="yes"/>
<layer number="32" name="bCream" color="7" fill="5" visible="no" active="yes"/>
<layer number="33" name="tFinish" color="6" fill="3" visible="no" active="yes"/>
<layer number="34" name="bFinish" color="6" fill="6" visible="no" active="yes"/>
<layer number="35" name="tGlue" color="7" fill="4" visible="no" active="yes"/>
<layer number="36" name="bGlue" color="7" fill="5" visible="no" active="yes"/>
<layer number="37" name="tTest" color="7" fill="1" visible="no" active="yes"/>
<layer number="38" name="bTest" color="7" fill="1" visible="no" active="yes"/>
<layer number="39" name="tKeepout" color="4" fill="11" visible="yes" active="yes"/>
<layer number="40" name="bKeepout" color="1" fill="11" visible="yes" active="yes"/>
<layer number="41" name="tRestrict" color="4" fill="10" visible="yes" active="yes"/>
<layer number="42" name="bRestrict" color="1" fill="10" visible="yes" active="yes"/>
<layer number="43" name="vRestrict" color="2" fill="10" visible="yes" active="yes"/>
<layer number="44" name="Drills" color="7" fill="1" visible="no" active="yes"/>
<layer number="45" name="Holes" color="7" fill="1" visible="no" active="yes"/>
<layer number="46" name="Milling" color="3" fill="1" visible="no" active="yes"/>
<layer number="47" name="Measures" color="7" fill="1" visible="no" active="yes"/>
<layer number="48" name="Document" color="7" fill="1" visible="yes" active="yes"/>
<layer number="49" name="Reference" color="7" fill="1" visible="yes" active="yes"/>
<layer number="51" name="tDocu" color="7" fill="1" visible="yes" active="yes"/>
<layer number="52" name="bDocu" color="7" fill="1" visible="yes" active="yes"/>
<layer number="90" name="Modules" color="5" fill="1" visible="yes" active="yes"/>
<layer number="91" name="Nets" color="2" fill="1" visible="yes" active="yes"/>
<layer number="92" name="Busses" color="1" fill="1" visible="yes" active="yes"/>
<layer number="93" name="Pins" color="2" fill="1" visible="yes" active="yes"/>
<layer number="94" name="Symbols" color="4" fill="1" visible="yes" active="yes"/>
<layer number="95" name="Names" color="7" fill="1" visible="yes" active="yes"/>
<layer number="96" name="Values" color="7" fill="1" visible="yes" active="yes"/>
<layer number="97" name="Info" color="7" fill="1" visible="yes" active="yes"/>
<layer number="98" name="Guide" color="6" fill="1" visible="yes" active="yes"/>
</layers>
<library>
<packages>
<package name="SOIC127P600X175-14N">
<wire x1="-1.17" y1="-4.325" x2="1.17" y2="-4.325" width="0.127" layer="21"/>
<wire x1="-1.17" y1="4.325" x2="1.17" y2="4.325" width="0.127" layer="21"/>
<wire x1="-1.95" y1="4.325" x2="1.95" y2="4.325" width="0.127" layer="51"/>
<wire x1="1.95" y1="4.325" x2="1.95" y2="-4.325" width="0.127" layer="51"/>
<wire x1="1.95" y1="-4.325" x2="-1.95" y2="-4.325" width="0.127" layer="51"/>
<wire x1="-1.95" y1="-4.325" x2="-1.95" y2="4.325" width="0.127" layer="51"/>
<text x="-3.6" y="4.8" size="1.27" layer="25">&gt;NAME</text>
<text x="-3.6" y="-4.8" size="1.27" layer="27" align="top-left">&gt;VALUE</text>
<wire x1="-3.71" y1="4.575" x2="3.71" y2="4.575" width="0.05" layer="39"/>
<wire x1="3.71" y1="4.575" x2="3.71" y2="-4.575" width="0.05" layer="39"/>
<wire x1="3.71" y1="-4.575" x2="-3.71" y2="-4.575" width="0.05" layer="39"/>
<wire x1="-3.71" y1="-4.575" x2="-3.71" y2="4.575" width="0.05" layer="39"/>
<circle x="-4.05" y="4.1" radius="0.1" width="0.2" layer="21"/>
<circle x="-4.05" y="4.1" radius="0.1" width="0.2" layer="51"/>
<smd name="1" x="-2.475" y="3.81" dx="1.97" dy="0.6" layer="1" roundness="50"/>
<smd name="2" x="-2.475" y="2.54" dx="1.97" dy="0.6" layer="1" roundness="50"/>
<smd name="3" x="-2.475" y="1.27" dx="1.97" dy="0.6" layer="1" roundness="50"/>
<smd name="4" x="-2.475" y="0" dx="1.97" dy="0.6" layer="1" roundness="50"/>
<smd name="5" x="-2.475" y="-1.27" dx="1.97" dy="0.6" layer="1" roundness="50"/>
<smd name="6" x="-2.475" y="-2.54" dx="1.97" dy="0.6" layer="1" roundness="50"/>
<smd name="7" x="-2.475" y="-3.81" dx="1.97" dy="0.6" layer="1" roundness="50"/>
<smd name="8" x="2.475" y="-3.81" dx="1.97" dy="0.6" layer="1" roundness="50"/>
<smd name="9" x="2.475" y="-2.54" dx="1.97" dy="0.6" layer="1" roundness="50"/>
<smd name="10" x="2.475" y="-1.27" dx="1.97" dy="0.6" layer="1" roundness="50"/>
<smd name="11" x="2.475" y="0" dx="1.97" dy="0.6" layer="1" roundness="50"/>
<smd name="12" x="2.475" y="1.27" dx="1.97" dy="0.6" layer="1" roundness="50"/>
<smd name="13" x="2.475" y="2.54" dx="1.97" dy="0.6" layer="1" roundness="50"/>
<smd name="14" x="2.475" y="3.81" dx="1.97" dy="0.6" layer="1" roundness="50"/>
</package>
</packages>
<symbols>
<symbol name="CD4081BM96">
<wire x1="-12.7" y1="17.78" x2="12.7" y2="17.78" width="0.41" layer="94"/>
<wire x1="12.7" y1="17.78" x2="12.7" y2="-17.78" width="0.41" layer="94"/>
<wire x1="12.7" y1="-17.78" x2="-12.7" y2="-17.78" width="0.41" layer="94"/>
<wire x1="-12.7" y1="-17.78" x2="-12.7" y2="17.78" width="0.41" layer="94"/>
<text x="-12.7" y="18.78" size="2.0828" layer="95" ratio="10" rot="SR0">&gt;NAME</text>
<text x="-12.7" y="-21.78" size="2.0828" layer="96" ratio="10" rot="SR0">&gt;VALUE</text>
<pin name="A" x="-17.78" y="10.16" length="middle" direction="in"/>
<pin name="B" x="-17.78" y="7.62" length="middle" direction="in"/>
<pin name="C" x="-17.78" y="5.08" length="middle" direction="in"/>
<pin name="D" x="-17.78" y="2.54" length="middle" direction="in"/>
<pin name="E" x="-17.78" y="0" length="middle" direction="in"/>
<pin name="F" x="-17.78" y="-2.54" length="middle" direction="in"/>
<pin name="G" x="-17.78" y="-5.08" length="middle" direction="in"/>
<pin name="H" x="-17.78" y="-7.62" length="middle" direction="in"/>
<pin name="VDD" x="17.78" y="15.24" length="middle" direction="pwr" rot="R180"/>
<pin name="J" x="17.78" y="10.16" length="middle" direction="out" rot="R180"/>
<pin name="K" x="17.78" y="7.62" length="middle" direction="out" rot="R180"/>
<pin name="L" x="17.78" y="5.08" length="middle" direction="out" rot="R180"/>
<pin name="M" x="17.78" y="2.54" length="middle" direction="out" rot="R180"/>
<pin name="VSS" x="17.78" y="-15.24" length="middle" direction="pwr" rot="R180"/>
</symbol>
</symbols>
<devicesets>
<deviceset name="CD4081BM96" prefix="U">
<description> &lt;a href="https://pricing.snapeda.com/parts/CD4081BM96/Texas%20Instruments/view-part?ref=eda"&gt;Check prices&lt;/a&gt;</description>
<gates>
<gate name="G$1" symbol="CD4081BM96" x="0" y="0"/>
</gates>
<devices>
<device name="" package="SOIC127P600X175-14N">
<connects>
<connect gate="G$1" pin="A" pad="1"/>
<connect gate="G$1" pin="B" pad="2"/>
<connect gate="G$1" pin="C" pad="5"/>
<connect gate="G$1" pin="D" pad="6"/>
<connect gate="G$1" pin="E" pad="8"/>
<connect gate="G$1" pin="F" pad="9"/>
<connect gate="G$1" pin="G" pad="12"/>
<connect gate="G$1" pin="H" pad="13"/>
<connect gate="G$1" pin="J" pad="3"/>
<connect gate="G$1" pin="K" pad="4"/>
<connect gate="G$1" pin="L" pad="10"/>
<connect gate="G$1" pin="M" pad="11"/>
<connect gate="G$1" pin="VDD" pad="14"/>
<connect gate="G$1" pin="VSS" pad="7"/>
</connects>
<technologies>
<technology name="">
<attribute name="Purchase-URL" value="https://pricing.snapeda.com/search/part/CD4081BM96/?ref=eda"/>
<attribute name="MP" value="CD4081BM96"/>
<attribute name="MF" value="Texas Instruments"/>
<attribute name="Package" value="SOIC-14 Texas Instruments"/>
<attribute name="Price" value="None"/>
<attribute name="Availability" value="Good"/>
<attribute name="Description" value="
CMOS Quad 2-Input AND Gate 14-SOIC -55 to 125
"/>
</technology>
</technologies>
</device>
</devices>
</deviceset>
</devicesets>
</library>
</drawing>
</eagle>
