<!--This work is licensed under a Creative Commons Attribution-ShareAlike 4.0 International License (CC BY-SA) with Design Exception 1.0-->
<eagle version="7.1.0">
<drawing>
<settings>
<setting alwaysvectorfont="no"/>
<setting verticaltext="up"/>
</settings>
<grid distance="0.1" unitdist="inch" unit="inch" style="lines" multiple="1" display="no" altdistance="0.01" altunitdist="inch" altunit="inch"/>
<layers>
<layer number="1" name="Top" color="4" fill="1" visible="yes" active="yes"/>
<layer number="16" name="Bottom" color="1" fill="1" visible="yes" active="yes"/>
<layer number="17" name="Pads" color="2" fill="1" visible="yes" active="yes"/>
<layer number="18" name="Vias" color="2" fill="1" visible="yes" active="yes"/>
<layer number="19" name="Unrouted" color="6" fill="1" visible="yes" active="yes"/>
<layer number="20" name="Dimension" color="15" fill="1" visible="yes" active="yes"/>
<layer number="21" name="tPlace" color="7" fill="1" visible="yes" active="yes"/>
<layer number="22" name="bPlace" color="7" fill="1" visible="yes" active="yes"/>
<layer number="23" name="tOrigins" color="15" fill="1" visible="yes" active="yes"/>
<layer number="24" name="bOrigins" color="15" fill="1" visible="yes" active="yes"/>
<layer number="25" name="tNames" color="7" fill="1" visible="yes" active="yes"/>
<layer number="26" name="bNames" color="7" fill="1" visible="yes" active="yes"/>
<layer number="27" name="tValues" color="7" fill="1" visible="yes" active="yes"/>
<layer number="28" name="bValues" color="7" fill="1" visible="yes" active="yes"/>
<layer number="29" name="tStop" color="7" fill="3" visible="yes" active="yes"/>
<layer number="30" name="bStop" color="7" fill="6" visible="no" active="yes"/>
<layer number="31" name="tCream" color="7" fill="4" visible="yes" active="yes"/>
<layer number="32" name="bCream" color="7" fill="5" visible="no" active="yes"/>
<layer number="33" name="tFinish" color="6" fill="3" visible="no" active="yes"/>
<layer number="34" name="bFinish" color="6" fill="6" visible="no" active="yes"/>
<layer number="35" name="tGlue" color="7" fill="4" visible="no" active="yes"/>
<layer number="36" name="bGlue" color="7" fill="5" visible="no" active="yes"/>
<layer number="37" name="tTest" color="7" fill="1" visible="no" active="yes"/>
<layer number="38" name="bTest" color="7" fill="1" visible="no" active="yes"/>
<layer number="39" name="tKeepout" color="4" fill="11" visible="yes" active="yes"/>
<layer number="40" name="bKeepout" color="1" fill="11" visible="yes" active="yes"/>
<layer number="41" name="tRestrict" color="4" fill="10" visible="yes" active="yes"/>
<layer number="42" name="bRestrict" color="1" fill="10" visible="yes" active="yes"/>
<layer number="43" name="vRestrict" color="2" fill="10" visible="yes" active="yes"/>
<layer number="44" name="Drills" color="7" fill="1" visible="no" active="yes"/>
<layer number="45" name="Holes" color="7" fill="1" visible="no" active="yes"/>
<layer number="46" name="Milling" color="3" fill="1" visible="no" active="yes"/>
<layer number="47" name="Measures" color="7" fill="1" visible="no" active="yes"/>
<layer number="48" name="Document" color="7" fill="1" visible="yes" active="yes"/>
<layer number="49" name="Reference" color="7" fill="1" visible="yes" active="yes"/>
<layer number="51" name="tDocu" color="7" fill="1" visible="yes" active="yes"/>
<layer number="52" name="bDocu" color="7" fill="1" visible="yes" active="yes"/>
<layer number="90" name="Modules" color="5" fill="1" visible="yes" active="yes"/>
<layer number="91" name="Nets" color="2" fill="1" visible="yes" active="yes"/>
<layer number="92" name="Busses" color="1" fill="1" visible="yes" active="yes"/>
<layer number="93" name="Pins" color="2" fill="1" visible="yes" active="yes"/>
<layer number="94" name="Symbols" color="4" fill="1" visible="yes" active="yes"/>
<layer number="95" name="Names" color="7" fill="1" visible="yes" active="yes"/>
<layer number="96" name="Values" color="7" fill="1" visible="yes" active="yes"/>
<layer number="97" name="Info" color="7" fill="1" visible="yes" active="yes"/>
<layer number="98" name="Guide" color="6" fill="1" visible="yes" active="yes"/>
</layers>
<library>
<packages>
<package name="RESC2012X70N">
<text x="-1.71" y="-1.02" size="0.5" layer="27" align="top-left">&gt;VALUE</text>
<text x="-1.71" y="1.02" size="0.5" layer="25">&gt;NAME</text>
<wire x1="1.1" y1="-0.68" x2="-1.1" y2="-0.68" width="0.127" layer="51"/>
<wire x1="1.1" y1="0.68" x2="-1.1" y2="0.68" width="0.127" layer="51"/>
<wire x1="1.1" y1="-0.68" x2="1.1" y2="0.68" width="0.127" layer="51"/>
<wire x1="-1.1" y1="-0.68" x2="-1.1" y2="0.68" width="0.127" layer="51"/>
<wire x1="-0.1" y1="0.68" x2="0.1" y2="0.68" width="0.127" layer="21"/>
<wire x1="-0.1" y1="-0.68" x2="0.1" y2="-0.68" width="0.127" layer="21"/>
<wire x1="-1.708" y1="-0.94" x2="1.708" y2="-0.94" width="0.05" layer="39"/>
<wire x1="-1.708" y1="0.94" x2="1.708" y2="0.94" width="0.05" layer="39"/>
<wire x1="-1.708" y1="-0.94" x2="-1.708" y2="0.94" width="0.05" layer="39"/>
<wire x1="1.708" y1="-0.94" x2="1.708" y2="0.94" width="0.05" layer="39"/>
<smd name="1" x="-0.94" y="0" dx="1.04" dy="1.38" layer="1"/>
<smd name="2" x="0.94" y="0" dx="1.04" dy="1.38" layer="1"/>
</package>
</packages>
<symbols>
<symbol name="ERJ-6BQF3R3V">
<wire x1="-5.08" y1="0" x2="-4.445" y2="1.905" width="0.254" layer="94"/>
<wire x1="-4.445" y1="1.905" x2="-3.175" y2="-1.905" width="0.254" layer="94"/>
<wire x1="-3.175" y1="-1.905" x2="-1.905" y2="1.905" width="0.254" layer="94"/>
<wire x1="-1.905" y1="1.905" x2="-0.635" y2="-1.905" width="0.254" layer="94"/>
<wire x1="-0.635" y1="-1.905" x2="0.635" y2="1.905" width="0.254" layer="94"/>
<wire x1="0.635" y1="1.905" x2="1.905" y2="-1.905" width="0.254" layer="94"/>
<wire x1="1.905" y1="-1.905" x2="3.175" y2="1.905" width="0.254" layer="94"/>
<wire x1="3.175" y1="1.905" x2="4.445" y2="-1.905" width="0.254" layer="94"/>
<wire x1="4.445" y1="-1.905" x2="5.08" y2="0" width="0.254" layer="94"/>
<text x="-7.62444" y="2.54148" size="2.54148" layer="95">&gt;NAME</text>
<text x="-7.62997" y="-5.08664" size="2.54332" layer="96">&gt;VALUE</text>
<pin name="1" x="-10.16" y="0" visible="off" length="middle" direction="pas"/>
<pin name="2" x="10.16" y="0" visible="off" length="middle" direction="pas" rot="R180"/>
</symbol>
</symbols>
<devicesets>
<deviceset name="ERJ-6BQF3R3V" prefix="R">
<description> &lt;a href="https://pricing.snapeda.com/parts/ERJ-6BQF3R3V/Panasonic/view-part?ref=eda"&gt;Check prices&lt;/a&gt;</description>
<gates>
<gate name="G$1" symbol="ERJ-6BQF3R3V" x="0" y="0"/>
</gates>
<devices>
<device name="" package="RESC2012X70N">
<connects>
<connect gate="G$1" pin="1" pad="1"/>
<connect gate="G$1" pin="2" pad="2"/>
</connects>
<technologies>
<technology name="">
<attribute name="MP" value="ERJ-6BQF3R3V"/>
<attribute name="Purchase-URL" value="https://pricing.snapeda.com/search/part/ERJ-6BQF3R3V/?ref=eda"/>
<attribute name="Description" value="
3.3 Ohms ±1% 0.333W, 1/3W Chip Resistor 0805 (2012 Metric) Automotive AEC-Q200, Current Sense Thick Film
"/>
<attribute name="Availability" value="Warning"/>
<attribute name="Price" value="None"/>
<attribute name="Package" value="2012 Panasonic Electronic Components"/>
<attribute name="MF" value="Panasonic"/>
</technology>
</technologies>
</device>
</devices>
</deviceset>
</devicesets>
</library>
</drawing>
</eagle>
