<?xml version="1.0" encoding="utf-8"?>
<!DOCTYPE eagle SYSTEM "eagle.dtd">
<eagle version="9.6.2">
<drawing>
<settings>
<setting alwaysvectorfont="no"/>
<setting verticaltext="up"/>
</settings>
<grid distance="0.1" unitdist="inch" unit="inch" style="lines" multiple="1" display="no" altdistance="0.01" altunitdist="inch" altunit="inch"/>
<layers>
<layer number="1" name="Top" color="4" fill="1" visible="yes" active="yes"/>
<layer number="2" name="Route2" color="16" fill="1" visible="no" active="yes"/>
<layer number="3" name="Route3" color="17" fill="1" visible="no" active="yes"/>
<layer number="4" name="Route4" color="18" fill="1" visible="no" active="yes"/>
<layer number="5" name="Route5" color="19" fill="1" visible="no" active="yes"/>
<layer number="6" name="Route6" color="25" fill="1" visible="no" active="yes"/>
<layer number="7" name="Route7" color="26" fill="1" visible="no" active="yes"/>
<layer number="8" name="Route8" color="27" fill="1" visible="no" active="yes"/>
<layer number="9" name="Route9" color="28" fill="1" visible="no" active="yes"/>
<layer number="10" name="Route10" color="29" fill="1" visible="no" active="yes"/>
<layer number="11" name="Route11" color="30" fill="1" visible="no" active="yes"/>
<layer number="12" name="Route12" color="20" fill="1" visible="no" active="yes"/>
<layer number="13" name="Route13" color="21" fill="1" visible="no" active="yes"/>
<layer number="14" name="Route14" color="22" fill="1" visible="no" active="yes"/>
<layer number="15" name="Route15" color="23" fill="1" visible="no" active="yes"/>
<layer number="16" name="Bottom" color="1" fill="1" visible="yes" active="yes"/>
<layer number="17" name="Pads" color="2" fill="1" visible="yes" active="yes"/>
<layer number="18" name="Vias" color="2" fill="1" visible="yes" active="yes"/>
<layer number="19" name="Unrouted" color="6" fill="1" visible="yes" active="yes"/>
<layer number="20" name="Dimension" color="24" fill="1" visible="yes" active="yes"/>
<layer number="21" name="tPlace" color="7" fill="1" visible="yes" active="yes"/>
<layer number="22" name="bPlace" color="7" fill="1" visible="yes" active="yes"/>
<layer number="23" name="tOrigins" color="15" fill="1" visible="yes" active="yes"/>
<layer number="24" name="bOrigins" color="15" fill="1" visible="yes" active="yes"/>
<layer number="25" name="tNames" color="7" fill="1" visible="yes" active="yes"/>
<layer number="26" name="bNames" color="7" fill="1" visible="yes" active="yes"/>
<layer number="27" name="tValues" color="7" fill="1" visible="yes" active="yes"/>
<layer number="28" name="bValues" color="7" fill="1" visible="yes" active="yes"/>
<layer number="29" name="tStop" color="7" fill="3" visible="no" active="yes"/>
<layer number="30" name="bStop" color="7" fill="6" visible="no" active="yes"/>
<layer number="31" name="tCream" color="7" fill="4" visible="no" active="yes"/>
<layer number="32" name="bCream" color="7" fill="5" visible="no" active="yes"/>
<layer number="33" name="tFinish" color="6" fill="3" visible="no" active="yes"/>
<layer number="34" name="bFinish" color="6" fill="6" visible="no" active="yes"/>
<layer number="35" name="tGlue" color="7" fill="4" visible="no" active="yes"/>
<layer number="36" name="bGlue" color="7" fill="5" visible="no" active="yes"/>
<layer number="37" name="tTest" color="7" fill="1" visible="no" active="yes"/>
<layer number="38" name="bTest" color="7" fill="1" visible="no" active="yes"/>
<layer number="39" name="tKeepout" color="4" fill="11" visible="yes" active="yes"/>
<layer number="40" name="bKeepout" color="1" fill="11" visible="yes" active="yes"/>
<layer number="41" name="tRestrict" color="4" fill="10" visible="yes" active="yes"/>
<layer number="42" name="bRestrict" color="1" fill="10" visible="yes" active="yes"/>
<layer number="43" name="vRestrict" color="2" fill="10" visible="yes" active="yes"/>
<layer number="44" name="Drills" color="7" fill="1" visible="no" active="yes"/>
<layer number="45" name="Holes" color="7" fill="1" visible="no" active="yes"/>
<layer number="46" name="Milling" color="3" fill="1" visible="no" active="yes"/>
<layer number="47" name="Measures" color="7" fill="1" visible="no" active="yes"/>
<layer number="48" name="Document" color="7" fill="1" visible="yes" active="yes"/>
<layer number="49" name="Reference" color="7" fill="1" visible="yes" active="yes"/>
<layer number="51" name="tDocu" color="7" fill="1" visible="yes" active="yes"/>
<layer number="52" name="bDocu" color="7" fill="1" visible="yes" active="yes"/>
<layer number="88" name="SimResults" color="9" fill="1" visible="yes" active="yes"/>
<layer number="89" name="SimProbes" color="9" fill="1" visible="yes" active="yes"/>
<layer number="90" name="Modules" color="5" fill="1" visible="yes" active="yes"/>
<layer number="91" name="Nets" color="2" fill="1" visible="yes" active="yes"/>
<layer number="92" name="Busses" color="1" fill="1" visible="yes" active="yes"/>
<layer number="93" name="Pins" color="2" fill="1" visible="no" active="yes"/>
<layer number="94" name="Symbols" color="4" fill="1" visible="yes" active="yes"/>
<layer number="95" name="Names" color="7" fill="1" visible="yes" active="yes"/>
<layer number="96" name="Values" color="7" fill="1" visible="yes" active="yes"/>
<layer number="97" name="Info" color="7" fill="1" visible="yes" active="yes"/>
<layer number="98" name="Guide" color="6" fill="1" visible="yes" active="yes"/>
</layers>
<library>
<packages>
</packages>
<symbols>
<symbol name="A4L-LOC">
<wire x1="256.54" y1="3.81" x2="256.54" y2="8.89" width="0.1016" layer="94"/>
<wire x1="256.54" y1="8.89" x2="256.54" y2="13.97" width="0.1016" layer="94"/>
<wire x1="256.54" y1="13.97" x2="256.54" y2="19.05" width="0.1016" layer="94"/>
<wire x1="256.54" y1="19.05" x2="256.54" y2="24.13" width="0.1016" layer="94"/>
<wire x1="161.29" y1="3.81" x2="161.29" y2="24.13" width="0.1016" layer="94"/>
<wire x1="161.29" y1="24.13" x2="215.265" y2="24.13" width="0.1016" layer="94"/>
<wire x1="215.265" y1="24.13" x2="256.54" y2="24.13" width="0.1016" layer="94"/>
<wire x1="246.38" y1="3.81" x2="246.38" y2="8.89" width="0.1016" layer="94"/>
<wire x1="246.38" y1="8.89" x2="256.54" y2="8.89" width="0.1016" layer="94"/>
<wire x1="246.38" y1="8.89" x2="215.265" y2="8.89" width="0.1016" layer="94"/>
<wire x1="215.265" y1="8.89" x2="215.265" y2="3.81" width="0.1016" layer="94"/>
<wire x1="215.265" y1="8.89" x2="215.265" y2="13.97" width="0.1016" layer="94"/>
<wire x1="215.265" y1="13.97" x2="256.54" y2="13.97" width="0.1016" layer="94"/>
<wire x1="215.265" y1="13.97" x2="215.265" y2="19.05" width="0.1016" layer="94"/>
<wire x1="215.265" y1="19.05" x2="256.54" y2="19.05" width="0.1016" layer="94"/>
<wire x1="215.265" y1="19.05" x2="215.265" y2="24.13" width="0.1016" layer="94"/>
<text x="217.17" y="15.24" size="2.54" layer="94">&gt;DRAWING_NAME</text>
<text x="217.17" y="10.16" size="2.286" layer="94">&gt;LAST_DATE_TIME</text>
<text x="230.505" y="5.08" size="2.54" layer="94">&gt;SHEET</text>
<text x="216.916" y="4.953" size="2.54" layer="94">Sheet:</text>
<frame x1="0" y1="0" x2="260.35" y2="179.07" columns="6" rows="4" layer="94"/>
</symbol>
</symbols>
<devicesets>
<deviceset name="A4L-LOC" prefix="FRAME" uservalue="yes">
<description>&lt;b&gt;FRAME&lt;/b&gt;&lt;p&gt;
DIN A4, landscape with location and doc. field</description>
<gates>
<gate name="G$1" symbol="A4L-LOC" x="0" y="0"/>
</gates>
<devices>
<device name="">
<technologies>
<technology name=""/>
</technologies>
</device>
</devices>
</deviceset>
</devicesets>
</library>
</drawing>
</eagle>
