<!--This work is licensed under a Creative Commons Attribution-ShareAlike 4.0 International License (CC BY-SA) with Design Exception 1.0-->
<eagle version="7.1.0">
<drawing>
<settings>
<setting alwaysvectorfont="no"/>
<setting verticaltext="up"/>
</settings>
<grid distance="0.1" unitdist="inch" unit="inch" style="lines" multiple="1" display="no" altdistance="0.01" altunitdist="inch" altunit="inch"/>
<layers>
<layer number="1" name="Top" color="4" fill="1" visible="yes" active="yes"/>
<layer number="16" name="Bottom" color="1" fill="1" visible="yes" active="yes"/>
<layer number="17" name="Pads" color="2" fill="1" visible="yes" active="yes"/>
<layer number="18" name="Vias" color="2" fill="1" visible="yes" active="yes"/>
<layer number="19" name="Unrouted" color="6" fill="1" visible="yes" active="yes"/>
<layer number="20" name="Dimension" color="15" fill="1" visible="yes" active="yes"/>
<layer number="21" name="tPlace" color="7" fill="1" visible="yes" active="yes"/>
<layer number="22" name="bPlace" color="7" fill="1" visible="yes" active="yes"/>
<layer number="23" name="tOrigins" color="15" fill="1" visible="yes" active="yes"/>
<layer number="24" name="bOrigins" color="15" fill="1" visible="yes" active="yes"/>
<layer number="25" name="tNames" color="7" fill="1" visible="yes" active="yes"/>
<layer number="26" name="bNames" color="7" fill="1" visible="yes" active="yes"/>
<layer number="27" name="tValues" color="7" fill="1" visible="yes" active="yes"/>
<layer number="28" name="bValues" color="7" fill="1" visible="yes" active="yes"/>
<layer number="29" name="tStop" color="7" fill="3" visible="yes" active="yes"/>
<layer number="30" name="bStop" color="7" fill="6" visible="no" active="yes"/>
<layer number="31" name="tCream" color="7" fill="4" visible="yes" active="yes"/>
<layer number="32" name="bCream" color="7" fill="5" visible="no" active="yes"/>
<layer number="33" name="tFinish" color="6" fill="3" visible="no" active="yes"/>
<layer number="34" name="bFinish" color="6" fill="6" visible="no" active="yes"/>
<layer number="35" name="tGlue" color="7" fill="4" visible="no" active="yes"/>
<layer number="36" name="bGlue" color="7" fill="5" visible="no" active="yes"/>
<layer number="37" name="tTest" color="7" fill="1" visible="no" active="yes"/>
<layer number="38" name="bTest" color="7" fill="1" visible="no" active="yes"/>
<layer number="39" name="tKeepout" color="4" fill="11" visible="yes" active="yes"/>
<layer number="40" name="bKeepout" color="1" fill="11" visible="yes" active="yes"/>
<layer number="41" name="tRestrict" color="4" fill="10" visible="yes" active="yes"/>
<layer number="42" name="bRestrict" color="1" fill="10" visible="yes" active="yes"/>
<layer number="43" name="vRestrict" color="2" fill="10" visible="yes" active="yes"/>
<layer number="44" name="Drills" color="7" fill="1" visible="no" active="yes"/>
<layer number="45" name="Holes" color="7" fill="1" visible="no" active="yes"/>
<layer number="46" name="Milling" color="3" fill="1" visible="no" active="yes"/>
<layer number="47" name="Measures" color="7" fill="1" visible="no" active="yes"/>
<layer number="48" name="Document" color="7" fill="1" visible="yes" active="yes"/>
<layer number="49" name="Reference" color="7" fill="1" visible="yes" active="yes"/>
<layer number="51" name="tDocu" color="7" fill="1" visible="yes" active="yes"/>
<layer number="52" name="bDocu" color="7" fill="1" visible="yes" active="yes"/>
<layer number="90" name="Modules" color="5" fill="1" visible="yes" active="yes"/>
<layer number="91" name="Nets" color="2" fill="1" visible="yes" active="yes"/>
<layer number="92" name="Busses" color="1" fill="1" visible="yes" active="yes"/>
<layer number="93" name="Pins" color="2" fill="1" visible="yes" active="yes"/>
<layer number="94" name="Symbols" color="4" fill="1" visible="yes" active="yes"/>
<layer number="95" name="Names" color="7" fill="1" visible="yes" active="yes"/>
<layer number="96" name="Values" color="7" fill="1" visible="yes" active="yes"/>
<layer number="97" name="Info" color="7" fill="1" visible="yes" active="yes"/>
<layer number="98" name="Guide" color="6" fill="1" visible="yes" active="yes"/>
</layers>
<library>
<packages>
<package name="DIOM5227X270N">
<wire x1="-2.8" y1="1.1" x2="-2.8" y2="1.475" width="0.127" layer="21"/>
<wire x1="-2.8" y1="1.475" x2="2.8" y2="1.475" width="0.127" layer="21"/>
<wire x1="2.8" y1="1.475" x2="2.8" y2="1.1" width="0.127" layer="21"/>
<wire x1="2.8" y1="-1.475" x2="-2.8" y2="-1.475" width="0.127" layer="51"/>
<wire x1="-2.8" y1="-1.475" x2="-2.8" y2="1.475" width="0.127" layer="51"/>
<wire x1="-2.8" y1="1.475" x2="2.8" y2="1.475" width="0.127" layer="51"/>
<wire x1="2.8" y1="1.475" x2="2.8" y2="-1.475" width="0.127" layer="51"/>
<wire x1="2.8" y1="-1.1" x2="2.8" y2="-1.475" width="0.127" layer="21"/>
<wire x1="2.8" y1="-1.475" x2="-2.8" y2="-1.475" width="0.127" layer="21"/>
<wire x1="-2.8" y1="-1.475" x2="-2.8" y2="-1.1" width="0.127" layer="21"/>
<circle x="-3.755" y="0" radius="0.1" width="0.2" layer="21"/>
<circle x="-3.755" y="0" radius="0.1" width="0.2" layer="51"/>
<wire x1="-3.555" y1="-1.725" x2="-3.555" y2="1.725" width="0.05" layer="39"/>
<wire x1="-3.555" y1="1.725" x2="3.555" y2="1.725" width="0.05" layer="39"/>
<wire x1="3.555" y1="1.725" x2="3.555" y2="-1.725" width="0.05" layer="39"/>
<wire x1="3.555" y1="-1.725" x2="-3.555" y2="-1.725" width="0.05" layer="39"/>
<text x="-4" y="2" size="1.778" layer="25">&gt;NAME</text>
<text x="-4" y="-4" size="1.778" layer="27">&gt;VALUE</text>
<smd name="C" x="-2.14" y="0" dx="2.33" dy="1.56" layer="1"/>
<smd name="A" x="2.14" y="0" dx="2.33" dy="1.56" layer="1" rot="R180"/>
</package>
</packages>
<symbols>
<symbol name="S1M">
<text x="-5.08" y="2.54" size="1.778" layer="95">&gt;NAME</text>
<text x="-5.08" y="-3.81" size="1.778" layer="96">&gt;VALUE</text>
<wire x1="-1.27" y1="-1.27" x2="1.27" y2="0" width="0.254" layer="94"/>
<wire x1="1.27" y1="0" x2="-1.27" y2="1.27" width="0.254" layer="94"/>
<wire x1="1.27" y1="1.27" x2="1.27" y2="0" width="0.254" layer="94"/>
<wire x1="-1.27" y1="1.27" x2="-1.27" y2="0" width="0.254" layer="94"/>
<wire x1="-1.27" y1="0" x2="-1.27" y2="-1.27" width="0.254" layer="94"/>
<wire x1="1.27" y1="0" x2="1.27" y2="-1.27" width="0.254" layer="94"/>
<wire x1="-2.54" y1="0" x2="-1.27" y2="0" width="0.254" layer="94"/>
<wire x1="1.27" y1="0" x2="2.54" y2="0" width="0.254" layer="94"/>
<pin name="K" x="5.08" y="0" visible="off" length="short" direction="pas" rot="R180"/>
<pin name="A" x="-5.08" y="0" visible="off" length="short" direction="pas"/>
</symbol>
</symbols>
<devicesets>
<deviceset name="S1M" prefix="D">
<description>S1 Series 1000 V 1 A 1 uA Surface Mount General Purpose Rectifier - DO-214AC &lt;a href="https://pricing.snapeda.com/parts/S1M/ON%20Semiconductor/view-part?ref=eda"&gt;Check prices&lt;/a&gt;</description>
<gates>
<gate name="G$1" symbol="S1M" x="0" y="0"/>
</gates>
<devices>
<device name="" package="DIOM5227X270N">
<connects>
<connect gate="G$1" pin="A" pad="A"/>
<connect gate="G$1" pin="K" pad="C"/>
</connects>
<technologies>
<technology name="">
<attribute name="Description" value="
Diode Standard 1000V 1A Surface Mount SMA (DO-214AC)
"/>
<attribute name="Purchase-URL" value="https://pricing.snapeda.com/search/part/S1M/?ref=eda"/>
<attribute name="MF" value="ON Semiconductor"/>
<attribute name="Package" value="SMA-2 ON Semiconductor"/>
<attribute name="MP" value="S1M"/>
<attribute name="Price" value="None"/>
<attribute name="Availability" value="Good"/>
</technology>
</technologies>
</device>
</devices>
</deviceset>
</devicesets>
</library>
</drawing>
</eagle>
