<?xml version="1.0" encoding="utf-8"?>
<!--/269870/44382/2.47/8/4/MOSFET (P-Channel)/-->
<!DOCTYPE curve SYSTEM "eagle.dtd">
<eagle version="7.7.0">
<drawing>
<settings>
<setting alwaysvectorfont="no"/>
<setting verticaltext="up"/>
</settings>
<grid distance="0.1" unitdist="inch" unit="inch" style="lines" multiple="1" display="no" altdistance="0.01" altunitdist="inch" altunit="inch"/>
<layers>
<layer number="1" name="Top" color="4" fill="1" visible="yes" active="yes"/>
<layer number="16" name="Bottom" color="1" fill="1" visible="yes" active="yes"/>
<layer number="17" name="Pads" color="2" fill="1" visible="yes" active="yes"/>
<layer number="18" name="Vias" color="2" fill="1" visible="yes" active="yes"/>
<layer number="19" name="Unrouted" color="6" fill="1" visible="yes" active="yes"/>
<layer number="20" name="Dimension" color="15" fill="1" visible="yes" active="yes"/>
<layer number="21" name="tPlace" color="7" fill="1" visible="yes" active="yes"/>
<layer number="22" name="bPlace" color="7" fill="1" visible="yes" active="yes"/>
<layer number="23" name="tOrigins" color="15" fill="1" visible="yes" active="yes"/>
<layer number="24" name="bOrigins" color="15" fill="1" visible="yes" active="yes"/>
<layer number="25" name="tNames" color="7" fill="1" visible="yes" active="yes"/>
<layer number="26" name="bNames" color="7" fill="1" visible="yes" active="yes"/>
<layer number="27" name="tValues" color="7" fill="1" visible="yes" active="yes"/>
<layer number="28" name="bValues" color="7" fill="1" visible="yes" active="yes"/>
<layer number="29" name="tStop" color="7" fill="3" visible="no" active="yes"/>
<layer number="30" name="bStop" color="7" fill="6" visible="no" active="yes"/>
<layer number="31" name="tCream" color="7" fill="4" visible="no" active="yes"/>
<layer number="32" name="bCream" color="7" fill="5" visible="no" active="yes"/>
<layer number="33" name="tFinish" color="6" fill="3" visible="no" active="yes"/>
<layer number="34" name="bFinish" color="6" fill="6" visible="no" active="yes"/>
<layer number="35" name="tGlue" color="7" fill="4" visible="no" active="yes"/>
<layer number="36" name="bGlue" color="7" fill="5" visible="no" active="yes"/>
<layer number="37" name="tTest" color="7" fill="1" visible="no" active="yes"/>
<layer number="38" name="bTest" color="7" fill="1" visible="no" active="yes"/>
<layer number="39" name="tKeepout" color="4" fill="11" visible="yes" active="yes"/>
<layer number="40" name="bKeepout" color="1" fill="11" visible="yes" active="yes"/>
<layer number="41" name="tRestrict" color="4" fill="10" visible="yes" active="yes"/>
<layer number="42" name="bRestrict" color="1" fill="10" visible="yes" active="yes"/>
<layer number="43" name="vRestrict" color="2" fill="10" visible="yes" active="yes"/>
<layer number="44" name="Drills" color="7" fill="1" visible="no" active="yes"/>
<layer number="45" name="Holes" color="7" fill="1" visible="no" active="yes"/>
<layer number="46" name="Milling" color="3" fill="1" visible="no" active="yes"/>
<layer number="47" name="Measures" color="7" fill="1" visible="no" active="yes"/>
<layer number="48" name="Document" color="7" fill="1" visible="yes" active="yes"/>
<layer number="49" name="Reference" color="7" fill="1" visible="yes" active="yes"/>
<layer number="51" name="tDocu" color="7" fill="1" visible="yes" active="yes"/>
<layer number="52" name="bDocu" color="7" fill="1" visible="yes" active="yes"/>
<layer number="90" name="Modules" color="5" fill="1" visible="yes" active="yes"/>
<layer number="91" name="Nets" color="2" fill="1" visible="yes" active="yes"/>
<layer number="92" name="Busses" color="1" fill="1" visible="yes" active="yes"/>
<layer number="93" name="Pins" color="2" fill="1" visible="no" active="yes"/>
<layer number="94" name="Symbols" color="4" fill="1" visible="yes" active="yes"/>
<layer number="95" name="Names" color="7" fill="1" visible="yes" active="yes"/>
<layer number="96" name="Values" color="7" fill="1" visible="yes" active="yes"/>
<layer number="97" name="Info" color="7" fill="1" visible="yes" active="yes"/>
<layer number="98" name="Guide" color="6" fill="1" visible="yes" active="yes"/>
</layers>
<library>
<description>&lt;MOSFET -60V Vds 20V Vgs PowerPAK SO-8&lt;/b&gt;&lt;p&gt;
&lt;author&gt;Created by SamacSys&lt;/author&gt;</description>
<packages>
<package name="SI7141DPT1GE3">
<description>&lt;b&gt;PowerPAK&reg; SO-8 Single_1-1&lt;/b&gt;&lt;br&gt;
</description>
<smd name="1" x="-2.810" y="1.905" dx="1.270" dy="0.610" layer="1" rot="R0"/>
<smd name="2" x="-2.810" y="0.635" dx="1.270" dy="0.610" layer="1" rot="R0"/>
<smd name="3" x="-2.810" y="-0.635" dx="1.270" dy="0.610" layer="1" rot="R0"/>
<smd name="4" x="-2.810" y="-1.905" dx="1.270" dy="0.610" layer="1" rot="R0"/>
<smd name="5" x="2.810" y="-1.905" dx="0.710" dy="0.610" layer="1" rot="R0"/>
<smd name="6" x="2.810" y="-0.635" dx="0.710" dy="0.610" layer="1" rot="R0"/>
<smd name="7" x="2.810" y="0.635" dx="0.710" dy="0.610" layer="1" rot="R0"/>
<smd name="8" x="2.810" y="1.905" dx="0.710" dy="0.610" layer="1" rot="R0"/>
<smd name="9" x="0.550" y="0.000" dx="3.910" dy="3.810" layer="1" rot="R90"/>
<smd name="10" x="2.300" y="2.083" dx="0.320" dy="0.255" layer="1" rot="R0"/>
<smd name="11" x="2.300" y="-2.083" dx="0.320" dy="0.255" layer="1" rot="R0"/>
<text x="-0.417" y="0.000" align="center" size="1.27" layer="25" rot="R0" >&gt;NAME</text>
<text x="-0.417" y="0.000" align="center" size="1.27" layer="27" rot="R0" >&gt;VALUE</text>
<wire x1="-2.945" y1="2.45" x2="2.945" y2="2.45" width="0.2" layer="51"/>
<wire x1="2.945" y1="2.45" x2="2.945" y2="-2.45" width="0.2" layer="51"/>
<wire x1="2.945" y1="-2.45" x2="-2.945" y2="-2.45" width="0.2" layer="51"/>
<wire x1="-2.945" y1="-2.45" x2="-2.945" y2="2.45" width="0.2" layer="51"/>
<wire x1="-5" y1="3.45" x2="4.165" y2="3.45" width="0.1" layer="51"/>
<wire x1="4.165" y1="3.45" x2="4.165" y2="-3.45" width="0.1" layer="51"/>
<wire x1="4.165" y1="-3.45" x2="-5" y2="-3.45" width="0.1" layer="51"/>
<wire x1="-5" y1="-3.45" x2="-5" y2="3.45" width="0.1" layer="51"/>
<wire x1="-2.945" y1="2.45" x2="2.945" y2="2.45" width="0.1" layer="21"/>
<wire x1="-2.945" y1="-2.45" x2="2.945" y2="-2.45" width="0.1" layer="21"/>
<wire x1="-3.9" y1="1.8" x2="-3.9" y2="1.8" width="0.2" layer="21"/>
<wire x1="-3.900" y1="1.800" x2="-3.900" y2="2.000" width="0.2" layer="21" curve="-180.0"/>
<wire x1="-3.9" y1="2" x2="-3.9" y2="2" width="0.2" layer="21"/>
<wire x1="-3.900" y1="2.000" x2="-3.900" y2="1.800" width="0.2" layer="21" curve="-180.0"/>
</package>
</packages>
<symbols>
<symbol name="SI7461DP-T1-GE3">
<wire x1="5.08" y1="2.54" x2="20.32" y2="2.54" width="0.254" layer="94"/>
<wire x1="20.32" y1="-10.16" x2="20.32" y2="2.54" width="0.254" layer="94"/>
<wire x1="20.32" y1="-10.16" x2="5.08" y2="-10.16" width="0.254" layer="94"/>
<wire x1="5.08" y1="2.54" x2="5.08" y2="-10.16" width="0.254" layer="94"/>
<text x="21.59" y="7.62" align="center-left" size="1.778" layer="95">&gt;NAME</text>
<text x="21.59" y="5.08" align="center-left" size="1.778" layer="96">&gt;VALUE</text>
<pin name="S_1" x="0" y="0" length="middle" direction="io" rot="R0"/>
<pin name="S_2" x="0" y="-2.54" length="middle" direction="io" rot="R0"/>
<pin name="S_3" x="0" y="-5.08" length="middle" direction="io" rot="R0"/>
<pin name="G" x="0" y="-7.62" length="middle" direction="io" rot="R0"/>
<pin name="D_1" x="25.4" y="0" length="middle" direction="io" rot="R180"/>
<pin name="D_2" x="25.4" y="-2.54" length="middle" direction="io" rot="R180"/>
<pin name="D_3" x="25.4" y="-5.08" length="middle" direction="io" rot="R180"/>
<pin name="D_4" x="25.4" y="-7.62" length="middle" direction="io" rot="R180"/>
</symbol>
</symbols>
<devicesets>
<deviceset name="SI7461DP-T1-GE3" prefix="Q">
<description>&lt;b&gt;MOSFET -60V Vds 20V Vgs PowerPAK SO-8&lt;/b&gt;&lt;p&gt;
Source: &lt;a href="https://componentsearchengine.com/Datasheets/1/SI7461DP-T1-GE3.pdf"&gt; Datasheet &lt;/a&gt;</description>
<gates>
<gate name="G$1" symbol="SI7461DP-T1-GE3" x="0" y="0"/>
</gates>
<devices>
<device name="" package="SI7141DPT1GE3">
<connects>
<connect gate="G$1" pin="S_1" pad="1"/>
<connect gate="G$1" pin="S_2" pad="2"/>
<connect gate="G$1" pin="S_3" pad="3"/>
<connect gate="G$1" pin="G" pad="4"/>
<connect gate="G$1" pin="D_1" pad="5"/>
<connect gate="G$1" pin="D_2" pad="6"/>
<connect gate="G$1" pin="D_3" pad="7"/>
<connect gate="G$1" pin="D_4" pad="8"/>
</connects>
<technologies>
<technology name="">
<attribute name="Manufacturer_Name" value="Vishay" constant="no"/>
<attribute name="Manufacturer_Part_Number" value="SI7461DP-T1-GE3" constant="no"/>
<attribute name="Arrow_Part_Number" value="SI7461DP-T1-GE3" constant="no"/>
<attribute name="Arrow_Price-Stock" value="https://www.arrow.com/en/products/si7461dp-t1-ge3/vishay" constant="no"/>
<attribute name="Mouser_Part_Number" value="781-SI7461DP-T1-GE3" constant="no"/>
<attribute name="Mouser_Price-Stock" value="https://www.mouser.co.uk/ProductDetail/Vishay-Semiconductors/SI7461DP-T1-GE3?qs=IRuQNBqMOckrm7nfmxO5EA%3D%3D" constant="no"/>
<attribute name="Description" value="MOSFET -60V Vds 20V Vgs PowerPAK SO-8" constant="no"/>
<attribute name="Height" value="mm" constant="no"/>
</technology>
</technologies>
</device>
</devices>
</deviceset>
</devicesets>
</library>
</drawing>
</eagle>
