Version 4
SHEET 1 880 680
WIRE 16 -16 -208 -16
WIRE -480 16 -608 16
WIRE -208 32 -208 -16
WIRE 16 32 16 -16
WIRE -608 64 -608 16
WIRE -480 64 -480 16
WIRE -208 128 -208 112
WIRE -608 160 -608 144
WIRE -480 176 -480 144
WIRE -384 176 -480 176
WIRE -480 192 -480 176
WIRE -144 192 -208 192
WIRE 16 192 16 96
WIRE 16 192 -64 192
WIRE 224 192 16 192
WIRE -208 256 -208 192
WIRE 224 256 224 192
WIRE 16 272 16 192
WIRE -480 304 -480 272
WIRE -208 352 -208 336
WIRE 16 384 16 336
WIRE 224 384 224 336
FLAG -208 128 0
FLAG -208 352 0
FLAG -608 160 0
FLAG -480 304 0
FLAG 16 384 0
FLAG 224 384 0
SYMBOL diode 32 96 R180
WINDOW 0 24 64 Left 2
WINDOW 3 24 0 Left 2
SYMATTR InstName D1
SYMATTR Value 1N4148
SYMBOL diode 32 336 R180
WINDOW 0 24 64 Left 2
WINDOW 3 24 0 Left 2
SYMATTR InstName D2
SYMATTR Value 1N4148
SYMBOL voltage -208 16 R0
WINDOW 123 0 0 Left 0
WINDOW 39 0 0 Left 0
SYMATTR InstName VCC
SYMATTR Value 5
SYMBOL voltage -208 240 R0
WINDOW 123 0 0 Left 0
WINDOW 39 0 0 Left 0
SYMATTR InstName Vpin
SYMATTR Value 18
SYMBOL res 208 240 R0
SYMATTR InstName R1
SYMATTR Value 100k
SYMBOL res -496 48 R0
SYMATTR InstName R2
SYMATTR Value 47k
SYMBOL res -496 176 R0
SYMATTR InstName R3
SYMATTR Value 10k
SYMBOL voltage -608 48 R0
WINDOW 123 0 0 Left 0
WINDOW 39 0 0 Left 0
SYMATTR InstName Alarm
SYMATTR Value 100
SYMBOL res -48 176 R90
WINDOW 0 0 56 VBottom 2
WINDOW 3 32 56 VTop 2
SYMATTR InstName R4
SYMATTR Value 1000
TEXT -282 440 Left 2 !.dc Vpin 0 18 1
