<?xml version="1.0" encoding="utf-8"?>
<!--/413772/44382/2.47/14/3/Integrated Circuit/-->
<!DOCTYPE curve SYSTEM "eagle.dtd">
<eagle version="7.7.0">
<drawing>
<settings>
<setting alwaysvectorfont="no"/>
<setting verticaltext="up"/>
</settings>
<grid distance="0.1" unitdist="inch" unit="inch" style="lines" multiple="1" display="no" altdistance="0.01" altunitdist="inch" altunit="inch"/>
<layers>
<layer number="1" name="Top" color="4" fill="1" visible="yes" active="yes"/>
<layer number="16" name="Bottom" color="1" fill="1" visible="yes" active="yes"/>
<layer number="17" name="Pads" color="2" fill="1" visible="yes" active="yes"/>
<layer number="18" name="Vias" color="2" fill="1" visible="yes" active="yes"/>
<layer number="19" name="Unrouted" color="6" fill="1" visible="yes" active="yes"/>
<layer number="20" name="Dimension" color="15" fill="1" visible="yes" active="yes"/>
<layer number="21" name="tPlace" color="7" fill="1" visible="yes" active="yes"/>
<layer number="22" name="bPlace" color="7" fill="1" visible="yes" active="yes"/>
<layer number="23" name="tOrigins" color="15" fill="1" visible="yes" active="yes"/>
<layer number="24" name="bOrigins" color="15" fill="1" visible="yes" active="yes"/>
<layer number="25" name="tNames" color="7" fill="1" visible="yes" active="yes"/>
<layer number="26" name="bNames" color="7" fill="1" visible="yes" active="yes"/>
<layer number="27" name="tValues" color="7" fill="1" visible="yes" active="yes"/>
<layer number="28" name="bValues" color="7" fill="1" visible="yes" active="yes"/>
<layer number="29" name="tStop" color="7" fill="3" visible="no" active="yes"/>
<layer number="30" name="bStop" color="7" fill="6" visible="no" active="yes"/>
<layer number="31" name="tCream" color="7" fill="4" visible="no" active="yes"/>
<layer number="32" name="bCream" color="7" fill="5" visible="no" active="yes"/>
<layer number="33" name="tFinish" color="6" fill="3" visible="no" active="yes"/>
<layer number="34" name="bFinish" color="6" fill="6" visible="no" active="yes"/>
<layer number="35" name="tGlue" color="7" fill="4" visible="no" active="yes"/>
<layer number="36" name="bGlue" color="7" fill="5" visible="no" active="yes"/>
<layer number="37" name="tTest" color="7" fill="1" visible="no" active="yes"/>
<layer number="38" name="bTest" color="7" fill="1" visible="no" active="yes"/>
<layer number="39" name="tKeepout" color="4" fill="11" visible="yes" active="yes"/>
<layer number="40" name="bKeepout" color="1" fill="11" visible="yes" active="yes"/>
<layer number="41" name="tRestrict" color="4" fill="10" visible="yes" active="yes"/>
<layer number="42" name="bRestrict" color="1" fill="10" visible="yes" active="yes"/>
<layer number="43" name="vRestrict" color="2" fill="10" visible="yes" active="yes"/>
<layer number="44" name="Drills" color="7" fill="1" visible="no" active="yes"/>
<layer number="45" name="Holes" color="7" fill="1" visible="no" active="yes"/>
<layer number="46" name="Milling" color="3" fill="1" visible="no" active="yes"/>
<layer number="47" name="Measures" color="7" fill="1" visible="no" active="yes"/>
<layer number="48" name="Document" color="7" fill="1" visible="yes" active="yes"/>
<layer number="49" name="Reference" color="7" fill="1" visible="yes" active="yes"/>
<layer number="51" name="tDocu" color="7" fill="1" visible="yes" active="yes"/>
<layer number="52" name="bDocu" color="7" fill="1" visible="yes" active="yes"/>
<layer number="90" name="Modules" color="5" fill="1" visible="yes" active="yes"/>
<layer number="91" name="Nets" color="2" fill="1" visible="yes" active="yes"/>
<layer number="92" name="Busses" color="1" fill="1" visible="yes" active="yes"/>
<layer number="93" name="Pins" color="2" fill="1" visible="no" active="yes"/>
<layer number="94" name="Symbols" color="4" fill="1" visible="yes" active="yes"/>
<layer number="95" name="Names" color="7" fill="1" visible="yes" active="yes"/>
<layer number="96" name="Values" color="7" fill="1" visible="yes" active="yes"/>
<layer number="97" name="Info" color="7" fill="1" visible="yes" active="yes"/>
<layer number="98" name="Guide" color="6" fill="1" visible="yes" active="yes"/>
</layers>
<library>
<description>&lt;Texas Instruments CD4071BPW, Quad, OR OR Gate, 3  18 V, 14-Pin TSSOP&lt;/b&gt;&lt;p&gt;
&lt;author&gt;Created by SamacSys&lt;/author&gt;</description>
<packages>
<package name="SOP65P640X120-14N">
<description>&lt;b&gt;PW&lt;/b&gt;&lt;br&gt;
</description>
<smd name="1" x="-2.938" y="1.95" dx="1.475" dy="0.45" layer="1" rot="R0"/>
<smd name="2" x="-2.938" y="1.3" dx="1.475" dy="0.45" layer="1" rot="R0"/>
<smd name="3" x="-2.938" y="0.65" dx="1.475" dy="0.45" layer="1" rot="R0"/>
<smd name="4" x="-2.938" y="0" dx="1.475" dy="0.45" layer="1" rot="R0"/>
<smd name="5" x="-2.938" y="-0.65" dx="1.475" dy="0.45" layer="1" rot="R0"/>
<smd name="6" x="-2.938" y="-1.3" dx="1.475" dy="0.45" layer="1" rot="R0"/>
<smd name="7" x="-2.938" y="-1.95" dx="1.475" dy="0.45" layer="1" rot="R0"/>
<smd name="8" x="2.938" y="-1.95" dx="1.475" dy="0.45" layer="1" rot="R0"/>
<smd name="9" x="2.938" y="-1.3" dx="1.475" dy="0.45" layer="1" rot="R0"/>
<smd name="10" x="2.938" y="-0.65" dx="1.475" dy="0.45" layer="1" rot="R0"/>
<smd name="11" x="2.938" y="0" dx="1.475" dy="0.45" layer="1" rot="R0"/>
<smd name="12" x="2.938" y="0.65" dx="1.475" dy="0.45" layer="1" rot="R0"/>
<smd name="13" x="2.938" y="1.3" dx="1.475" dy="0.45" layer="1" rot="R0"/>
<smd name="14" x="2.938" y="1.95" dx="1.475" dy="0.45" layer="1" rot="R0"/>
<text x="0" y="0" align="center" size="1.27" layer="25" rot="R0" >&gt;NAME</text>
<text x="0" y="0" align="center" size="1.27" layer="27" rot="R0" >&gt;VALUE</text>
<wire x1="-3.925" y1="2.8" x2="3.925" y2="2.8" width="0.05" layer="51"/>
<wire x1="3.925" y1="2.8" x2="3.925" y2="-2.8" width="0.05" layer="51"/>
<wire x1="3.925" y1="-2.8" x2="-3.925" y2="-2.8" width="0.05" layer="51"/>
<wire x1="-3.925" y1="-2.8" x2="-3.925" y2="2.8" width="0.05" layer="51"/>
<wire x1="-2.2" y1="2.5" x2="2.2" y2="2.5" width="0.1" layer="51"/>
<wire x1="2.2" y1="2.5" x2="2.2" y2="-2.5" width="0.1" layer="51"/>
<wire x1="2.2" y1="-2.5" x2="-2.2" y2="-2.5" width="0.1" layer="51"/>
<wire x1="-2.2" y1="-2.5" x2="-2.2" y2="2.5" width="0.1" layer="51"/>
<wire x1="-2.2" y1="1.85" x2="-1.55" y2="2.5" width="0.1" layer="51"/>
<wire x1="-1.85" y1="2.5" x2="1.85" y2="2.5" width="0.2" layer="21"/>
<wire x1="1.85" y1="2.5" x2="1.85" y2="-2.5" width="0.2" layer="21"/>
<wire x1="1.85" y1="-2.5" x2="-1.85" y2="-2.5" width="0.2" layer="21"/>
<wire x1="-1.85" y1="-2.5" x2="-1.85" y2="2.5" width="0.2" layer="21"/>
<wire x1="-3.675" y1="2.525" x2="-2.2" y2="2.525" width="0.2" layer="21"/>
</package>
</packages>
<symbols>
<symbol name="CD4071BPW">
<wire x1="5.08" y1="2.54" x2="25.4" y2="2.54" width="0.254" layer="94"/>
<wire x1="25.4" y1="-17.78" x2="25.4" y2="2.54" width="0.254" layer="94"/>
<wire x1="25.4" y1="-17.78" x2="5.08" y2="-17.78" width="0.254" layer="94"/>
<wire x1="5.08" y1="2.54" x2="5.08" y2="-17.78" width="0.254" layer="94"/>
<text x="26.67" y="7.62" align="center-left" size="1.778" layer="95">&gt;NAME</text>
<text x="26.67" y="5.08" align="center-left" size="1.778" layer="96">&gt;VALUE</text>
<pin name="A" x="0" y="0" length="middle" direction="in" rot="R0"/>
<pin name="B" x="0" y="-2.54" length="middle" direction="in" rot="R0"/>
<pin name="J=A+B" x="0" y="-5.08" length="middle" direction="out" rot="R0"/>
<pin name="K=C+D" x="0" y="-7.62" length="middle" direction="out" rot="R0"/>
<pin name="C" x="0" y="-10.16" length="middle" direction="in" rot="R0"/>
<pin name="D" x="0" y="-12.7" length="middle" direction="in" rot="R0"/>
<pin name="VSS" x="0" y="-15.24" length="middle" direction="pwr" rot="R0"/>
<pin name="VDD" x="30.48" y="0" length="middle" direction="pwr" rot="R180"/>
<pin name="H" x="30.48" y="-2.54" length="middle" direction="in" rot="R180"/>
<pin name="G" x="30.48" y="-5.08" length="middle" direction="in" rot="R180"/>
<pin name="M=G+H" x="30.48" y="-7.62" length="middle" direction="out" rot="R180"/>
<pin name="L=E+F" x="30.48" y="-10.16" length="middle" direction="out" rot="R180"/>
<pin name="F" x="30.48" y="-12.7" length="middle" direction="in" rot="R180"/>
<pin name="E" x="30.48" y="-15.24" length="middle" direction="in" rot="R180"/>
</symbol>
</symbols>
<devicesets>
<deviceset name="CD4071BPW" prefix="IC">
<description>&lt;b&gt;Texas Instruments CD4071BPW, Quad, OR OR Gate, 3  18 V, 14-Pin TSSOP&lt;/b&gt;&lt;p&gt;
Source: &lt;a href="http://www.ti.com/lit/ds/symlink/cd4071b.pdf"&gt; Datasheet &lt;/a&gt;</description>
<gates>
<gate name="G$1" symbol="CD4071BPW" x="0" y="0"/>
</gates>
<devices>
<device name="" package="SOP65P640X120-14N">
<connects>
<connect gate="G$1" pin="A" pad="1"/>
<connect gate="G$1" pin="B" pad="2"/>
<connect gate="G$1" pin="J=A+B" pad="3"/>
<connect gate="G$1" pin="K=C+D" pad="4"/>
<connect gate="G$1" pin="C" pad="5"/>
<connect gate="G$1" pin="D" pad="6"/>
<connect gate="G$1" pin="VSS" pad="7"/>
<connect gate="G$1" pin="E" pad="8"/>
<connect gate="G$1" pin="F" pad="9"/>
<connect gate="G$1" pin="L=E+F" pad="10"/>
<connect gate="G$1" pin="M=G+H" pad="11"/>
<connect gate="G$1" pin="G" pad="12"/>
<connect gate="G$1" pin="H" pad="13"/>
<connect gate="G$1" pin="VDD" pad="14"/>
</connects>
<technologies>
<technology name="">
<attribute name="Manufacturer_Name" value="Texas Instruments" constant="no"/>
<attribute name="Manufacturer_Part_Number" value="CD4071BPW" constant="no"/>
<attribute name="Arrow_Part_Number" value="CD4071BPW" constant="no"/>
<attribute name="Arrow_Price-Stock" value="https://www.arrow.com/en/products/cd4071bpw/texas-instruments" constant="no"/>
<attribute name="Mouser_Part_Number" value="595-CD4071BPW" constant="no"/>
<attribute name="Mouser_Price-Stock" value="https://www.mouser.co.uk/ProductDetail/Texas-Instruments/CD4071BPW?qs=HE9hdJajmepbvGtWYrlTrw%3D%3D" constant="no"/>
<attribute name="Description" value="Texas Instruments CD4071BPW, Quad, OR OR Gate, 3  18 V, 14-Pin TSSOP" constant="no"/>
<attribute name="Height" value="1.2mm" constant="no"/>
</technology>
</technologies>
</device>
</devices>
</deviceset>
</devicesets>
</library>
</drawing>
</eagle>
