<?xml version="1.0" encoding="utf-8"?>
<!--/469969/44382/2.47/21/4/Integrated Circuit/-->
<!DOCTYPE curve SYSTEM "eagle.dtd">
<eagle version="7.7.0">
<drawing>
<settings>
<setting alwaysvectorfont="no"/>
<setting verticaltext="up"/>
</settings>
<grid distance="0.1" unitdist="inch" unit="inch" style="lines" multiple="1" display="no" altdistance="0.01" altunitdist="inch" altunit="inch"/>
<layers>
<layer number="1" name="Top" color="4" fill="1" visible="yes" active="yes"/>
<layer number="16" name="Bottom" color="1" fill="1" visible="yes" active="yes"/>
<layer number="17" name="Pads" color="2" fill="1" visible="yes" active="yes"/>
<layer number="18" name="Vias" color="2" fill="1" visible="yes" active="yes"/>
<layer number="19" name="Unrouted" color="6" fill="1" visible="yes" active="yes"/>
<layer number="20" name="Dimension" color="15" fill="1" visible="yes" active="yes"/>
<layer number="21" name="tPlace" color="7" fill="1" visible="yes" active="yes"/>
<layer number="22" name="bPlace" color="7" fill="1" visible="yes" active="yes"/>
<layer number="23" name="tOrigins" color="15" fill="1" visible="yes" active="yes"/>
<layer number="24" name="bOrigins" color="15" fill="1" visible="yes" active="yes"/>
<layer number="25" name="tNames" color="7" fill="1" visible="yes" active="yes"/>
<layer number="26" name="bNames" color="7" fill="1" visible="yes" active="yes"/>
<layer number="27" name="tValues" color="7" fill="1" visible="yes" active="yes"/>
<layer number="28" name="bValues" color="7" fill="1" visible="yes" active="yes"/>
<layer number="29" name="tStop" color="7" fill="3" visible="no" active="yes"/>
<layer number="30" name="bStop" color="7" fill="6" visible="no" active="yes"/>
<layer number="31" name="tCream" color="7" fill="4" visible="no" active="yes"/>
<layer number="32" name="bCream" color="7" fill="5" visible="no" active="yes"/>
<layer number="33" name="tFinish" color="6" fill="3" visible="no" active="yes"/>
<layer number="34" name="bFinish" color="6" fill="6" visible="no" active="yes"/>
<layer number="35" name="tGlue" color="7" fill="4" visible="no" active="yes"/>
<layer number="36" name="bGlue" color="7" fill="5" visible="no" active="yes"/>
<layer number="37" name="tTest" color="7" fill="1" visible="no" active="yes"/>
<layer number="38" name="bTest" color="7" fill="1" visible="no" active="yes"/>
<layer number="39" name="tKeepout" color="4" fill="11" visible="yes" active="yes"/>
<layer number="40" name="bKeepout" color="1" fill="11" visible="yes" active="yes"/>
<layer number="41" name="tRestrict" color="4" fill="10" visible="yes" active="yes"/>
<layer number="42" name="bRestrict" color="1" fill="10" visible="yes" active="yes"/>
<layer number="43" name="vRestrict" color="2" fill="10" visible="yes" active="yes"/>
<layer number="44" name="Drills" color="7" fill="1" visible="no" active="yes"/>
<layer number="45" name="Holes" color="7" fill="1" visible="no" active="yes"/>
<layer number="46" name="Milling" color="3" fill="1" visible="no" active="yes"/>
<layer number="47" name="Measures" color="7" fill="1" visible="no" active="yes"/>
<layer number="48" name="Document" color="7" fill="1" visible="yes" active="yes"/>
<layer number="49" name="Reference" color="7" fill="1" visible="yes" active="yes"/>
<layer number="51" name="tDocu" color="7" fill="1" visible="yes" active="yes"/>
<layer number="52" name="bDocu" color="7" fill="1" visible="yes" active="yes"/>
<layer number="90" name="Modules" color="5" fill="1" visible="yes" active="yes"/>
<layer number="91" name="Nets" color="2" fill="1" visible="yes" active="yes"/>
<layer number="92" name="Busses" color="1" fill="1" visible="yes" active="yes"/>
<layer number="93" name="Pins" color="2" fill="1" visible="no" active="yes"/>
<layer number="94" name="Symbols" color="4" fill="1" visible="yes" active="yes"/>
<layer number="95" name="Names" color="7" fill="1" visible="yes" active="yes"/>
<layer number="96" name="Values" color="7" fill="1" visible="yes" active="yes"/>
<layer number="97" name="Info" color="7" fill="1" visible="yes" active="yes"/>
<layer number="98" name="Guide" color="6" fill="1" visible="yes" active="yes"/>
</layers>
<library>
<description>&lt;Linear Technology LTC3112EFE#PBF, Step-Down/Up DC-DC Converter, 2.5A, Adjustable, 2.5  14 V, 20-Pin TSSOP&lt;/b&gt;&lt;p&gt;
&lt;author&gt;Created by SamacSys&lt;/author&gt;</description>
<packages>
<package name="SOP65P640X120-21N">
<description>&lt;b&gt;FE Package 20-Lead Plastic TSSOP (4.4mm) (Reference LTC DWG # 05-08-1663)&lt;/b&gt;&lt;br&gt;
</description>
<smd name="1" x="-2.925" y="2.925" dx="1.45" dy="0.45" layer="1" rot="R0"/>
<smd name="2" x="-2.925" y="2.275" dx="1.45" dy="0.45" layer="1" rot="R0"/>
<smd name="3" x="-2.925" y="1.625" dx="1.45" dy="0.45" layer="1" rot="R0"/>
<smd name="4" x="-2.925" y="0.975" dx="1.45" dy="0.45" layer="1" rot="R0"/>
<smd name="5" x="-2.925" y="0.325" dx="1.45" dy="0.45" layer="1" rot="R0"/>
<smd name="6" x="-2.925" y="-0.325" dx="1.45" dy="0.45" layer="1" rot="R0"/>
<smd name="7" x="-2.925" y="-0.975" dx="1.45" dy="0.45" layer="1" rot="R0"/>
<smd name="8" x="-2.925" y="-1.625" dx="1.45" dy="0.45" layer="1" rot="R0"/>
<smd name="9" x="-2.925" y="-2.275" dx="1.45" dy="0.45" layer="1" rot="R0"/>
<smd name="10" x="-2.925" y="-2.925" dx="1.45" dy="0.45" layer="1" rot="R0"/>
<smd name="11" x="2.925" y="-2.925" dx="1.45" dy="0.45" layer="1" rot="R0"/>
<smd name="12" x="2.925" y="-2.275" dx="1.45" dy="0.45" layer="1" rot="R0"/>
<smd name="13" x="2.925" y="-1.625" dx="1.45" dy="0.45" layer="1" rot="R0"/>
<smd name="14" x="2.925" y="-0.975" dx="1.45" dy="0.45" layer="1" rot="R0"/>
<smd name="15" x="2.925" y="-0.325" dx="1.45" dy="0.45" layer="1" rot="R0"/>
<smd name="16" x="2.925" y="0.325" dx="1.45" dy="0.45" layer="1" rot="R0"/>
<smd name="17" x="2.925" y="0.975" dx="1.45" dy="0.45" layer="1" rot="R0"/>
<smd name="18" x="2.925" y="1.625" dx="1.45" dy="0.45" layer="1" rot="R0"/>
<smd name="19" x="2.925" y="2.275" dx="1.45" dy="0.45" layer="1" rot="R0"/>
<smd name="20" x="2.925" y="2.925" dx="1.45" dy="0.45" layer="1" rot="R0"/>
<smd name="21" x="0" y="0" dx="4.95" dy="2.74" layer="1" rot="R90"/>
<text x="0" y="0" align="center" size="1.27" layer="25" rot="R0" >&gt;NAME</text>
<text x="0" y="0" align="center" size="1.27" layer="27" rot="R0" >&gt;VALUE</text>
<wire x1="-3.9" y1="3.55" x2="3.9" y2="3.55" width="0.05" layer="51"/>
<wire x1="3.9" y1="3.55" x2="3.9" y2="-3.55" width="0.05" layer="51"/>
<wire x1="3.9" y1="-3.55" x2="-3.9" y2="-3.55" width="0.05" layer="51"/>
<wire x1="-3.9" y1="-3.55" x2="-3.9" y2="3.55" width="0.05" layer="51"/>
<wire x1="-2.2" y1="3.25" x2="2.2" y2="3.25" width="0.1" layer="51"/>
<wire x1="2.2" y1="3.25" x2="2.2" y2="-3.25" width="0.1" layer="51"/>
<wire x1="2.2" y1="-3.25" x2="-2.2" y2="-3.25" width="0.1" layer="51"/>
<wire x1="-2.2" y1="-3.25" x2="-2.2" y2="3.25" width="0.1" layer="51"/>
<wire x1="-2.2" y1="2.6" x2="-1.55" y2="3.25" width="0.1" layer="51"/>
<wire x1="-3.65" y1="3.5" x2="-2.2" y2="3.5" width="0.2" layer="21"/>
</package>
</packages>
<symbols>
<symbol name="LTC3112EFE#PBF">
<wire x1="5.08" y1="2.54" x2="30.48" y2="2.54" width="0.254" layer="94"/>
<wire x1="30.48" y1="-30.48" x2="30.48" y2="2.54" width="0.254" layer="94"/>
<wire x1="30.48" y1="-30.48" x2="5.08" y2="-30.48" width="0.254" layer="94"/>
<wire x1="5.08" y1="2.54" x2="5.08" y2="-30.48" width="0.254" layer="94"/>
<text x="31.75" y="7.62" align="center-left" size="1.778" layer="95">&gt;NAME</text>
<text x="31.75" y="5.08" align="center-left" size="1.778" layer="96">&gt;VALUE</text>
<pin name="GND_1" x="0" y="0" length="middle" direction="io" rot="R0"/>
<pin name="COMP" x="0" y="-2.54" length="middle" direction="io" rot="R0"/>
<pin name="FB" x="0" y="-5.08" length="middle" direction="io" rot="R0"/>
<pin name="OVP" x="0" y="-7.62" length="middle" direction="io" rot="R0"/>
<pin name="VIN_1" x="0" y="-10.16" length="middle" direction="io" rot="R0"/>
<pin name="VIN_2" x="0" y="-12.7" length="middle" direction="io" rot="R0"/>
<pin name="RUN" x="0" y="-15.24" length="middle" direction="io" rot="R0"/>
<pin name="IOUT_1" x="0" y="-17.78" length="middle" direction="io" rot="R0"/>
<pin name="IOUT_2" x="0" y="-20.32" length="middle" direction="io" rot="R0"/>
<pin name="GND_2" x="0" y="-22.86" length="middle" direction="io" rot="R0"/>
<pin name="EP" x="17.78" y="-35.56" length="middle" direction="io" rot="R90"/>
<pin name="GND_4" x="35.56" y="0" length="middle" direction="io" rot="R180"/>
<pin name="PWM/SYNC" x="35.56" y="-2.54" length="middle" direction="io" rot="R180"/>
<pin name="VCC" x="35.56" y="-5.08" length="middle" direction="io" rot="R180"/>
<pin name="BST1" x="35.56" y="-7.62" length="middle" direction="io" rot="R180"/>
<pin name="SW1_2" x="35.56" y="-10.16" length="middle" direction="io" rot="R180"/>
<pin name="SW1_1" x="35.56" y="-12.7" length="middle" direction="io" rot="R180"/>
<pin name="BST2" x="35.56" y="-15.24" length="middle" direction="io" rot="R180"/>
<pin name="SW2_2" x="35.56" y="-17.78" length="middle" direction="io" rot="R180"/>
<pin name="SW2_1" x="35.56" y="-20.32" length="middle" direction="io" rot="R180"/>
<pin name="GND_3" x="35.56" y="-22.86" length="middle" direction="io" rot="R180"/>
</symbol>
</symbols>
<devicesets>
<deviceset name="LTC3112EFE#PBF" prefix="IC">
<description>&lt;b&gt;Linear Technology LTC3112EFE#PBF, Step-Down/Up DC-DC Converter, 2.5A, Adjustable, 2.5  14 V, 20-Pin TSSOP&lt;/b&gt;&lt;p&gt;
Source: &lt;a href="http://cds.linear.com/docs/en/datasheet/3112fd.pdf"&gt; Datasheet &lt;/a&gt;</description>
<gates>
<gate name="G$1" symbol="LTC3112EFE#PBF" x="0" y="0"/>
</gates>
<devices>
<device name="" package="SOP65P640X120-21N">
<connects>
<connect gate="G$1" pin="GND_1" pad="1"/>
<connect gate="G$1" pin="COMP" pad="2"/>
<connect gate="G$1" pin="FB" pad="3"/>
<connect gate="G$1" pin="OVP" pad="4"/>
<connect gate="G$1" pin="VIN_1" pad="5"/>
<connect gate="G$1" pin="VIN_2" pad="6"/>
<connect gate="G$1" pin="RUN" pad="7"/>
<connect gate="G$1" pin="IOUT_1" pad="8"/>
<connect gate="G$1" pin="IOUT_2" pad="9"/>
<connect gate="G$1" pin="GND_2" pad="10"/>
<connect gate="G$1" pin="GND_3" pad="11"/>
<connect gate="G$1" pin="SW2_1" pad="12"/>
<connect gate="G$1" pin="SW2_2" pad="13"/>
<connect gate="G$1" pin="BST2" pad="14"/>
<connect gate="G$1" pin="SW1_1" pad="15"/>
<connect gate="G$1" pin="SW1_2" pad="16"/>
<connect gate="G$1" pin="BST1" pad="17"/>
<connect gate="G$1" pin="VCC" pad="18"/>
<connect gate="G$1" pin="PWM/SYNC" pad="19"/>
<connect gate="G$1" pin="GND_4" pad="20"/>
<connect gate="G$1" pin="EP" pad="21"/>
</connects>
<technologies>
<technology name="">
<attribute name="Manufacturer_Name" value="Linear Technology" constant="no"/>
<attribute name="Manufacturer_Part_Number" value="LTC3112EFE#PBF" constant="no"/>
<attribute name="Arrow_Part_Number" value="LTC3112EFE#PBF" constant="no"/>
<attribute name="Arrow_Price-Stock" value="https://www.arrow.com/en/products/ltc3112efepbf/linear-technology" constant="no"/>
<attribute name="Mouser_Part_Number" value="584-LTC3112EFE#PBF" constant="no"/>
<attribute name="Mouser_Price-Stock" value="https://www.mouser.co.uk/ProductDetail/Analog-Devices-Linear-Technology/LTC3112EFEPBF?qs=hVkxg5c3xu%2FvAikIEM6tqA%3D%3D" constant="no"/>
<attribute name="Description" value="Linear Technology LTC3112EFE#PBF, Step-Down/Up DC-DC Converter, 2.5A, Adjustable, 2.5  14 V, 20-Pin TSSOP" constant="no"/>
<attribute name="Height" value="1.2mm" constant="no"/>
</technology>
</technologies>
</device>
</devices>
</deviceset>
</devicesets>
</library>
</drawing>
</eagle>
