<?xml version="1.0" encoding="utf-8"?>
<!--/251535/44382/2.47/2/3/Resistor/-->
<!DOCTYPE curve SYSTEM "eagle.dtd">
<eagle version="7.7.0">
<drawing>
<settings>
<setting alwaysvectorfont="no"/>
<setting verticaltext="up"/>
</settings>
<grid distance="0.1" unitdist="inch" unit="inch" style="lines" multiple="1" display="no" altdistance="0.01" altunitdist="inch" altunit="inch"/>
<layers>
<layer number="1" name="Top" color="4" fill="1" visible="yes" active="yes"/>
<layer number="16" name="Bottom" color="1" fill="1" visible="yes" active="yes"/>
<layer number="17" name="Pads" color="2" fill="1" visible="yes" active="yes"/>
<layer number="18" name="Vias" color="2" fill="1" visible="yes" active="yes"/>
<layer number="19" name="Unrouted" color="6" fill="1" visible="yes" active="yes"/>
<layer number="20" name="Dimension" color="15" fill="1" visible="yes" active="yes"/>
<layer number="21" name="tPlace" color="7" fill="1" visible="yes" active="yes"/>
<layer number="22" name="bPlace" color="7" fill="1" visible="yes" active="yes"/>
<layer number="23" name="tOrigins" color="15" fill="1" visible="yes" active="yes"/>
<layer number="24" name="bOrigins" color="15" fill="1" visible="yes" active="yes"/>
<layer number="25" name="tNames" color="7" fill="1" visible="yes" active="yes"/>
<layer number="26" name="bNames" color="7" fill="1" visible="yes" active="yes"/>
<layer number="27" name="tValues" color="7" fill="1" visible="yes" active="yes"/>
<layer number="28" name="bValues" color="7" fill="1" visible="yes" active="yes"/>
<layer number="29" name="tStop" color="7" fill="3" visible="no" active="yes"/>
<layer number="30" name="bStop" color="7" fill="6" visible="no" active="yes"/>
<layer number="31" name="tCream" color="7" fill="4" visible="no" active="yes"/>
<layer number="32" name="bCream" color="7" fill="5" visible="no" active="yes"/>
<layer number="33" name="tFinish" color="6" fill="3" visible="no" active="yes"/>
<layer number="34" name="bFinish" color="6" fill="6" visible="no" active="yes"/>
<layer number="35" name="tGlue" color="7" fill="4" visible="no" active="yes"/>
<layer number="36" name="bGlue" color="7" fill="5" visible="no" active="yes"/>
<layer number="37" name="tTest" color="7" fill="1" visible="no" active="yes"/>
<layer number="38" name="bTest" color="7" fill="1" visible="no" active="yes"/>
<layer number="39" name="tKeepout" color="4" fill="11" visible="yes" active="yes"/>
<layer number="40" name="bKeepout" color="1" fill="11" visible="yes" active="yes"/>
<layer number="41" name="tRestrict" color="4" fill="10" visible="yes" active="yes"/>
<layer number="42" name="bRestrict" color="1" fill="10" visible="yes" active="yes"/>
<layer number="43" name="vRestrict" color="2" fill="10" visible="yes" active="yes"/>
<layer number="44" name="Drills" color="7" fill="1" visible="no" active="yes"/>
<layer number="45" name="Holes" color="7" fill="1" visible="no" active="yes"/>
<layer number="46" name="Milling" color="3" fill="1" visible="no" active="yes"/>
<layer number="47" name="Measures" color="7" fill="1" visible="no" active="yes"/>
<layer number="48" name="Document" color="7" fill="1" visible="yes" active="yes"/>
<layer number="49" name="Reference" color="7" fill="1" visible="yes" active="yes"/>
<layer number="51" name="tDocu" color="7" fill="1" visible="yes" active="yes"/>
<layer number="52" name="bDocu" color="7" fill="1" visible="yes" active="yes"/>
<layer number="90" name="Modules" color="5" fill="1" visible="yes" active="yes"/>
<layer number="91" name="Nets" color="2" fill="1" visible="yes" active="yes"/>
<layer number="92" name="Busses" color="1" fill="1" visible="yes" active="yes"/>
<layer number="93" name="Pins" color="2" fill="1" visible="no" active="yes"/>
<layer number="94" name="Symbols" color="4" fill="1" visible="yes" active="yes"/>
<layer number="95" name="Names" color="7" fill="1" visible="yes" active="yes"/>
<layer number="96" name="Values" color="7" fill="1" visible="yes" active="yes"/>
<layer number="97" name="Info" color="7" fill="1" visible="yes" active="yes"/>
<layer number="98" name="Guide" color="6" fill="1" visible="yes" active="yes"/>
</layers>
<library>
<description>&lt;Thick Film Resistors - SMD ZERO OHM JUMPER&lt;/b&gt;&lt;p&gt;
&lt;author&gt;Created by SamacSys&lt;/author&gt;</description>
<packages>
<package name="RESC3116X65N">
<description>&lt;b&gt;RC1206&lt;/b&gt;&lt;br&gt;
</description>
<smd name="1" x="-1.5" y="0" dx="1.75" dy="1" layer="1" rot="R90"/>
<smd name="2" x="1.5" y="0" dx="1.75" dy="1" layer="1" rot="R90"/>
<text x="0" y="0" align="center" size="1.27" layer="25" rot="R0" >&gt;NAME</text>
<text x="0" y="0" align="center" size="1.27" layer="27" rot="R0" >&gt;VALUE</text>
<wire x1="-2.25" y1="1.15" x2="2.25" y2="1.15" width="0.05" layer="51"/>
<wire x1="2.25" y1="1.15" x2="2.25" y2="-1.15" width="0.05" layer="51"/>
<wire x1="2.25" y1="-1.15" x2="-2.25" y2="-1.15" width="0.05" layer="51"/>
<wire x1="-2.25" y1="-1.15" x2="-2.25" y2="1.15" width="0.05" layer="51"/>
<wire x1="-1.55" y1="0.8" x2="1.55" y2="0.8" width="0.1" layer="51"/>
<wire x1="1.55" y1="0.8" x2="1.55" y2="-0.8" width="0.1" layer="51"/>
<wire x1="1.55" y1="-0.8" x2="-1.55" y2="-0.8" width="0.1" layer="51"/>
<wire x1="-1.55" y1="-0.8" x2="-1.55" y2="0.8" width="0.1" layer="51"/>
<wire x1="0" y1="0.7" x2="0" y2="-0.7" width="0.2" layer="21"/>
</package>
</packages>
<symbols>
<symbol name="RC1206JR-070RL">
<wire x1="5.08" y1="1.27" x2="12.7" y2="1.27" width="0.254" layer="94"/>
<wire x1="12.7" y1="-1.27" x2="12.7" y2="1.27" width="0.254" layer="94"/>
<wire x1="12.7" y1="-1.27" x2="5.08" y2="-1.27" width="0.254" layer="94"/>
<wire x1="5.08" y1="1.27" x2="5.08" y2="-1.27" width="0.254" layer="94"/>
<text x="13.97" y="6.35" align="center-left" size="1.778" layer="95">&gt;NAME</text>
<text x="13.97" y="3.81" align="center-left" size="1.778" layer="96">&gt;VALUE</text>
<pin name="1" x="0" y="0" visible="pad" length="middle" direction="io" rot="R0"/>
<pin name="2" x="17.78" y="0" visible="pad" length="middle" direction="io" rot="R180"/>
</symbol>
</symbols>
<devicesets>
<deviceset name="RC1206JR-070RL" prefix="R">
<description>&lt;b&gt;Thick Film Resistors - SMD ZERO OHM JUMPER&lt;/b&gt;&lt;p&gt;
Source: &lt;a href="https://www.sos.sk/productdata/35/10/4/35104/RC1206.pdf"&gt; Datasheet &lt;/a&gt;</description>
<gates>
<gate name="G$1" symbol="RC1206JR-070RL" x="0" y="0"/>
</gates>
<devices>
<device name="" package="RESC3116X65N">
<connects>
<connect gate="G$1" pin="1" pad="1"/>
<connect gate="G$1" pin="2" pad="2"/>
</connects>
<technologies>
<technology name="">
<attribute name="Manufacturer_Name" value="YAGEO (PHYCOMP)" constant="no"/>
<attribute name="Manufacturer_Part_Number" value="RC1206JR-070RL" constant="no"/>
<attribute name="Arrow_Part_Number" value="RC1206JR-070RL" constant="no"/>
<attribute name="Arrow_Price-Stock" value="https://www.arrow.com/en/products/rc1206jr-070rl/yageo" constant="no"/>
<attribute name="Mouser_Part_Number" value="603-RC1206JR-070RL" constant="no"/>
<attribute name="Mouser_Price-Stock" value="https://www.mouser.co.uk/ProductDetail/Yageo/RC1206JR-070RL?qs=stZGH%252BcYwe4ZstaKNiOb8Q%3D%3D" constant="no"/>
<attribute name="Description" value="Thick Film Resistors - SMD ZERO OHM JUMPER" constant="no"/>
<attribute name="Height" value="0.65mm" constant="no"/>
</technology>
</technologies>
</device>
</devices>
</deviceset>
</devicesets>
</library>
</drawing>
</eagle>
