<?xml version="1.0" encoding="utf-8"?>
<!--/256832/44382/2.47/2/3/Connector/-->
<!DOCTYPE curve SYSTEM "eagle.dtd">
<eagle version="7.7.0">
<drawing>
<settings>
<setting alwaysvectorfont="no"/>
<setting verticaltext="up"/>
</settings>
<grid distance="0.1" unitdist="inch" unit="inch" style="lines" multiple="1" display="no" altdistance="0.01" altunitdist="inch" altunit="inch"/>
<layers>
<layer number="1" name="Top" color="4" fill="1" visible="yes" active="yes"/>
<layer number="16" name="Bottom" color="1" fill="1" visible="yes" active="yes"/>
<layer number="17" name="Pads" color="2" fill="1" visible="yes" active="yes"/>
<layer number="18" name="Vias" color="2" fill="1" visible="yes" active="yes"/>
<layer number="19" name="Unrouted" color="6" fill="1" visible="yes" active="yes"/>
<layer number="20" name="Dimension" color="15" fill="1" visible="yes" active="yes"/>
<layer number="21" name="tPlace" color="7" fill="1" visible="yes" active="yes"/>
<layer number="22" name="bPlace" color="7" fill="1" visible="yes" active="yes"/>
<layer number="23" name="tOrigins" color="15" fill="1" visible="yes" active="yes"/>
<layer number="24" name="bOrigins" color="15" fill="1" visible="yes" active="yes"/>
<layer number="25" name="tNames" color="7" fill="1" visible="yes" active="yes"/>
<layer number="26" name="bNames" color="7" fill="1" visible="yes" active="yes"/>
<layer number="27" name="tValues" color="7" fill="1" visible="yes" active="yes"/>
<layer number="28" name="bValues" color="7" fill="1" visible="yes" active="yes"/>
<layer number="29" name="tStop" color="7" fill="3" visible="no" active="yes"/>
<layer number="30" name="bStop" color="7" fill="6" visible="no" active="yes"/>
<layer number="31" name="tCream" color="7" fill="4" visible="no" active="yes"/>
<layer number="32" name="bCream" color="7" fill="5" visible="no" active="yes"/>
<layer number="33" name="tFinish" color="6" fill="3" visible="no" active="yes"/>
<layer number="34" name="bFinish" color="6" fill="6" visible="no" active="yes"/>
<layer number="35" name="tGlue" color="7" fill="4" visible="no" active="yes"/>
<layer number="36" name="bGlue" color="7" fill="5" visible="no" active="yes"/>
<layer number="37" name="tTest" color="7" fill="1" visible="no" active="yes"/>
<layer number="38" name="bTest" color="7" fill="1" visible="no" active="yes"/>
<layer number="39" name="tKeepout" color="4" fill="11" visible="yes" active="yes"/>
<layer number="40" name="bKeepout" color="1" fill="11" visible="yes" active="yes"/>
<layer number="41" name="tRestrict" color="4" fill="10" visible="yes" active="yes"/>
<layer number="42" name="bRestrict" color="1" fill="10" visible="yes" active="yes"/>
<layer number="43" name="vRestrict" color="2" fill="10" visible="yes" active="yes"/>
<layer number="44" name="Drills" color="7" fill="1" visible="no" active="yes"/>
<layer number="45" name="Holes" color="7" fill="1" visible="no" active="yes"/>
<layer number="46" name="Milling" color="3" fill="1" visible="no" active="yes"/>
<layer number="47" name="Measures" color="7" fill="1" visible="no" active="yes"/>
<layer number="48" name="Document" color="7" fill="1" visible="yes" active="yes"/>
<layer number="49" name="Reference" color="7" fill="1" visible="yes" active="yes"/>
<layer number="51" name="tDocu" color="7" fill="1" visible="yes" active="yes"/>
<layer number="52" name="bDocu" color="7" fill="1" visible="yes" active="yes"/>
<layer number="90" name="Modules" color="5" fill="1" visible="yes" active="yes"/>
<layer number="91" name="Nets" color="2" fill="1" visible="yes" active="yes"/>
<layer number="92" name="Busses" color="1" fill="1" visible="yes" active="yes"/>
<layer number="93" name="Pins" color="2" fill="1" visible="no" active="yes"/>
<layer number="94" name="Symbols" color="4" fill="1" visible="yes" active="yes"/>
<layer number="95" name="Names" color="7" fill="1" visible="yes" active="yes"/>
<layer number="96" name="Values" color="7" fill="1" visible="yes" active="yes"/>
<layer number="97" name="Info" color="7" fill="1" visible="yes" active="yes"/>
<layer number="98" name="Guide" color="6" fill="1" visible="yes" active="yes"/>
</layers>
<library>
<description>&lt;2 way vertical PCB header,5.08mm pitch Phoenix Contact MSTBVA Series, 5.08mm Pitch 2 Way 1 Row Straight PCB Header, Solder Termination, 12A&lt;/b&gt;&lt;p&gt;
&lt;author&gt;Created by SamacSys&lt;/author&gt;</description>
<packages>
<package name="SHDR2W100P0X508_1X2_1216X860X1">
<description>&lt;b&gt;1755736&lt;/b&gt;&lt;br&gt;
</description>
<pad name="1" x="0" y="0" drill="1.6" diameter="2.4" shape="square"/>
<pad name="2" x="5.08" y="0" drill="1.6" diameter="2.4"/>
<text x="0" y="0" align="center" size="1.27" layer="25" rot="R0" >&gt;NAME</text>
<text x="0" y="0" align="center" size="1.27" layer="27" rot="R0" >&gt;VALUE</text>
<wire x1="-3.79" y1="-4.05" x2="-3.79" y2="5.05" width="0.05" layer="51"/>
<wire x1="-3.79" y1="5.05" x2="8.87" y2="5.05" width="0.05" layer="51"/>
<wire x1="8.87" y1="5.05" x2="8.87" y2="-4.05" width="0.05" layer="51"/>
<wire x1="8.87" y1="-4.05" x2="-3.79" y2="-4.05" width="0.05" layer="51"/>
<wire x1="-3.54" y1="-3.8" x2="-3.54" y2="4.8" width="0.1" layer="51"/>
<wire x1="-3.54" y1="4.8" x2="8.62" y2="4.8" width="0.1" layer="51"/>
<wire x1="8.62" y1="4.8" x2="8.62" y2="-3.8" width="0.1" layer="51"/>
<wire x1="8.62" y1="-3.8" x2="-3.54" y2="-3.8" width="0.1" layer="51"/>
<wire x1="0" y1="-3.8" x2="8.62" y2="-3.8" width="0.2" layer="21"/>
<wire x1="8.62" y1="-3.8" x2="8.62" y2="4.8" width="0.2" layer="21"/>
<wire x1="8.62" y1="4.8" x2="-3.54" y2="4.8" width="0.2" layer="21"/>
<wire x1="-3.54" y1="4.8" x2="-3.54" y2="0" width="0.2" layer="21"/>
</package>
</packages>
<symbols>
<symbol name="1755736">
<wire x1="5.08" y1="2.54" x2="15.24" y2="2.54" width="0.254" layer="94"/>
<wire x1="15.24" y1="-5.08" x2="15.24" y2="2.54" width="0.254" layer="94"/>
<wire x1="15.24" y1="-5.08" x2="5.08" y2="-5.08" width="0.254" layer="94"/>
<wire x1="5.08" y1="2.54" x2="5.08" y2="-5.08" width="0.254" layer="94"/>
<text x="16.51" y="7.62" align="center-left" size="1.778" layer="95">&gt;NAME</text>
<text x="16.51" y="5.08" align="center-left" size="1.778" layer="96">&gt;VALUE</text>
<pin name="1" x="0" y="0" length="middle" direction="io" rot="R0"/>
<pin name="2" x="0" y="-2.54" length="middle" direction="io" rot="R0"/>
</symbol>
</symbols>
<devicesets>
<deviceset name="1755736" prefix="J">
<description>&lt;b&gt;2 way vertical PCB header,5.08mm pitch Phoenix Contact MSTBVA Series, 5.08mm Pitch 2 Way 1 Row Straight PCB Header, Solder Termination, 12A&lt;/b&gt;&lt;p&gt;
Source: &lt;a href="http://docs-emea.rs-online.com/webdocs/135e/0900766b8135ea0b.pdf"&gt; Datasheet &lt;/a&gt;</description>
<gates>
<gate name="G$1" symbol="1755736" x="0" y="0"/>
</gates>
<devices>
<device name="" package="SHDR2W100P0X508_1X2_1216X860X1">
<connects>
<connect gate="G$1" pin="1" pad="1"/>
<connect gate="G$1" pin="2" pad="2"/>
</connects>
<technologies>
<technology name="">
<attribute name="Manufacturer_Name" value="Phoenix Contact" constant="no"/>
<attribute name="Manufacturer_Part_Number" value="1755736" constant="no"/>
<attribute name="Arrow_Part_Number" value="1755736" constant="no"/>
<attribute name="Arrow_Price-Stock" value="https://www.arrow.com/en/products/1755736/phoenix-contact" constant="no"/>
<attribute name="Mouser_Part_Number" value="651-1755736" constant="no"/>
<attribute name="Mouser_Price-Stock" value="https://www.mouser.co.uk/ProductDetail/Phoenix-Contact/1755736?qs=wd%252Bw3mUqFrlo9zPE3AUt1w%3D%3D" constant="no"/>
<attribute name="Description" value="2 way vertical PCB header,5.08mm pitch Phoenix Contact MSTBVA Series, 5.08mm Pitch 2 Way 1 Row Straight PCB Header, Solder Termination, 12A" constant="no"/>
<attribute name="Height" value="12mm" constant="no"/>
</technology>
</technologies>
</device>
</devices>
</deviceset>
</devicesets>
</library>
</drawing>
</eagle>
